{
  "entrypoint": "index.html",
  "shell": "src/my-app.html",
  "fragments": [
  ],
  "sourceGlobs": [
   "src/**/*",
   "images/**/*",
   "bower.json"
  ],
  "includeDependencies": [
    "manifest.json",
    "bower_components/webcomponentsjs/**/*",
    "bower_components/custom-elements/**/*",
    "bower_components/shadydom/**/*",
    "bower_components/shadycss/**/*"
  ]
}
